Mission II

new mazegame.InventoryItem("images/inventory.jpg", "filler")
new mazegame.Room("images/granite&clouds.jpg", new java.awt.Color(128, 128, 128))
	new mazecomponents.Door("images/wnutFclosed.gif", new java.awt.Point(187, 149), "images/wnutFopen.gif", new java.awt.Point(187, 135), 2)
	new mazecomponents.Door("images/backarrow.gif", new java.awt.Point(183, 285), "images/backwards.gif", new java.awt.Point(183, 285), 4)
	new mazecomponents.Door("images/wnutRclosed.gif", new java.awt.Point(365, 148), "images/wnutRopen.gif", new java.awt.Point(365, 150), 3)
	new mazecomponents.Door("images/wnutLclosed.gif", new java.awt.Point(27, 148), "images/wnutLopen.gif", new java.awt.Point(27, 148), 1)
new mazegame.Room("images/granite&clouds.jpg", new java.awt.Color(128, 128, 128))
	new mazecomponents.Door("images/wnutRclosed.gif", new java.awt.Point(365, 148), "images/wnutRopen.gif", new java.awt.Point(365, 150), 0)
	new mazecomponents.Door("images/backarrow.gif", new java.awt.Point(183, 285), "images/backwards.gif", new java.awt.Point(183, 285), 6)
new mazegame.Room("images/granite&clouds.jpg", new java.awt.Color(128, 128, 128))
	new mazecomponents.Door("images/wnutRclosed.gif", new java.awt.Point(365, 148), "images/wnutRopen.gif", new java.awt.Point(365, 150), 8)
	new mazecomponents.Door("images/backarrow.gif", new java.awt.Point(183, 285), "images/backwards.gif", new java.awt.Point(183, 285), 0)
new mazegame.Room("images/granite&clouds.jpg", new java.awt.Color(128, 128, 128))
	new mazecomponents.Door("images/wnutLclosed.gif", new java.awt.Point(27, 148), "images/wnutLopen.gif", new java.awt.Point(27, 148), 0)
	new mazecomponents.Door("images/wnutRclosed.gif", new java.awt.Point(365, 148), "images/wnutRopen.gif", new java.awt.Point(365, 150), 7)
	new mazecomponents.Door("images/wnutFclosed.gif", new java.awt.Point(187, 149), "images/wnutFopen.gif", new java.awt.Point(187, 135), 8)
new mazegame.Room("images/granite&clouds.jpg", new java.awt.Color(128, 128, 128))
	new mazecomponents.Door("images/wnutFclosed.gif", new java.awt.Point(187, 149), "images/wnutFopen.gif", new java.awt.Point(187, 135), 0)
	new mazecomponents.Door("images/backarrow.gif", new java.awt.Point(183, 285), "images/backwards.gif", new java.awt.Point(183, 285), 5)
new mazegame.Room("images/wrongdoor.jpg", new java.awt.Color(102, 51, 0))
	new mazecomponents.DeathTrap("images/oops.gif", new java.awt.Point(132, 107))
new mazegame.Room("images/granite&clouds.jpg", new java.awt.Color(128, 128, 128))
	new mazecomponents.Door("images/wnutFclosed.gif", new java.awt.Point(187, 149), "images/wnutFopen.gif", new java.awt.Point(187, 135), 1)
	new mazecomponents.LockedDoor("images/wnutLlocked2.gif", "images/wnutLclosed.gif", new java.awt.Point(27, 148), "images/wnutLopen.gif", new java.awt.Point(27, 148), 11, true, "key2")
new mazegame.Room("images/granite&clouds.jpg", new java.awt.Color(128, 128, 128))
	new mazecomponents.Door("images/wnutLclosed.gif", new java.awt.Point(27, 148), "images/wnutLopen.gif", new java.awt.Point(27, 148), 3)
	new mazecomponents.Door("images/backarrow.gif", new java.awt.Point(183, 285), "images/backwards.gif", new java.awt.Point(183, 285), 9)
	new mazecomponents.Door("images/wnutRclosed.gif", new java.awt.Point(365, 148), "images/wnutRopen.gif", new java.awt.Point(365, 150), 10)
new mazegame.Room("images/granite&clouds.jpg", new java.awt.Color(128, 128, 128))
	new mazecomponents.Door("images/wnutLclosed.gif", new java.awt.Point(27, 148), "images/wnutLopen.gif", new java.awt.Point(27, 148), 2)
	new mazecomponents.Door("images/backarrow.gif", new java.awt.Point(183, 285), "images/backwards.gif", new java.awt.Point(183, 285), 3)
new mazegame.Room("images/granite&clouds.jpg", new java.awt.Color(128, 128, 128))
	new mazecomponents.Door("images/wnutFclosed.gif", new java.awt.Point(187, 149), "images/wnutFopen.gif", new java.awt.Point(187, 135), 7)
new mazegame.Room("images/granite&clouds.jpg", new java.awt.Color(128, 128, 128))
	new mazecomponents.Door("images/wnutLclosed.gif", new java.awt.Point(27, 148), "images/wnutLopen.gif", new java.awt.Point(27, 148), 7)
	new mazecomponents.Door("images/backarrow.gif", new java.awt.Point(183, 285), "images/backwards.gif", new java.awt.Point(183, 285), 12)
	new mazecomponents.Door("images/wnutRclosed.gif", new java.awt.Point(365, 148), "images/wnutRopen.gif", new java.awt.Point(365, 150), 13)
new mazegame.Room("images/treasure.jpg", new java.awt.Color(102, 0, 102))
	new mazecomponents.VictoryTreasure("images/chest.gif", new java.awt.Point(175, 241))
new mazegame.Room("images/granite&clouds.jpg", new java.awt.Color(128, 128, 128))
	new mazecomponents.Door("images/wnutFclosed.gif", new java.awt.Point(187, 149), "images/wnutFopen.gif", new java.awt.Point(187, 135), 10)
	new mazecomponents.Door("images/wnutLclosed.gif", new java.awt.Point(27, 148), "images/wnutLopen.gif", new java.awt.Point(27, 148), 14)
	new mazecomponents.LockedDoor("images/wnutRlocked1.gif", "images/wnutRclosed.gif", new java.awt.Point(365, 148), "images/wnutRopen.gif", new java.awt.Point(365, 148), 15, true, "key1")
new mazegame.Room("images/granite&clouds.jpg", new java.awt.Color(128, 128, 128))
	new mazecomponents.Door("images/wnutLclosed.gif", new java.awt.Point(27, 148), "images/wnutLopen.gif", new java.awt.Point(27, 148), 10)
	new mazecomponents.Door("images/wnutFclosed.gif", new java.awt.Point(187, 149), "images/wnutFopen.gif", new java.awt.Point(187, 135), 16)
new mazegame.Room("images/granite&clouds.jpg", new java.awt.Color(128, 128, 128))
	new mazecomponents.Door("images/wnutRclosed.gif", new java.awt.Point(365, 148), "images/wnutRopen.gif", new java.awt.Point(365, 150), 12)
new mazegame.Room("images/marble&stars.jpg", new java.awt.Color(0, 102, 0))
	new mazecomponents.Door("images/oakLclosed.gif", new java.awt.Point(27, 148), "images/oakLopen.gif", new java.awt.Point(27, 148), 12)
	new mazecomponents.Door("images/oakRclosed.gif", new java.awt.Point(365, 148), "images/oakRopen.gif", new java.awt.Point(365, 148), 18)
	new mazecomponents.Door("images/backarrow.gif", new java.awt.Point(183, 285), "images/backwards.gif", new java.awt.Point(183, 285), 19)
new mazegame.Room("images/granite&clouds.jpg", new java.awt.Color(128, 128, 128))
	new mazecomponents.Door("images/backarrow.gif", new java.awt.Point(183, 285), "images/backwards.gif", new java.awt.Point(183, 285), 13)
	new mazecomponents.Door("images/wnutRclosed.gif", new java.awt.Point(365, 148), "images/wnutRopen.gif", new java.awt.Point(365, 150), 17)
	new mazecomponents.KeyRoomItem("images/keyroomitem1.gif", new java.awt.Point(212, 264), "images/keyinventoryitem1.gif", "key1")
new mazegame.Room("images/wrongdoor.jpg", new java.awt.Color(102, 51, 0))
	new mazecomponents.DeathTrap("images/oops.gif", new java.awt.Point(132, 107))
new mazegame.Room("images/marble&stars.jpg", new java.awt.Color(0, 102, 0))
	new mazecomponents.Door("images/oakLclosed.gif", new java.awt.Point(27, 148), "images/oakLopen.gif", new java.awt.Point(27, 148), 15)
	new mazecomponents.Door("images/oakFclosed.gif", new java.awt.Point(191, 148), "images/oakFopen.gif", new java.awt.Point(191, 134), 20)
new mazegame.Room("images/marble&stars.jpg", new java.awt.Color(0, 102, 0))
	new mazecomponents.Door("images/oakFclosed.gif", new java.awt.Point(191, 148), "images/oakFopen.gif", new java.awt.Point(191, 134), 15)
	new mazecomponents.KeyRoomItem("images/keyroomitem2.gif", new java.awt.Point(212, 264), "images/keyinventoryitem2.gif", "key2")
new mazegame.Room("images/wrongdoor.jpg", new java.awt.Color(102, 51, 0))
	new mazecomponents.DeathTrap("images/oops.gif", new java.awt.Point(132, 107))
